01: tidypollute: Getting to Know the Package • tidypollute
…
This notebook orients you to tidypollute functions in a
functional example (pun intended).

This request receives data from EPA AirData flat files, for
analyte (pollutant) == LEAD over a given
time range.

library(tidypollute)

Get Analyte Codes

tidypollute::epa_analyte_codes

## # A tibble: 21 × 2
##    label                          analyte        
##    <chr>                          <chr>          
##  1 Concentration by Monitor       conc_by_monitor
##  2 AQI by CBSA                    aqi_by_cbsa    
##  3 AQI by County                  aqi_by_county  
##  4 Ozone (44201)                  44201          
##  5 SO2 (42401)                    42401          
##  6 CO (42101)                     42101          
##  7 NO2 (42602)                    42602          
##  8 PM2.5 FRM/FEM Mass (88101)     88101          
##  9 PM2.5 non FRM/FEM Mass (88502) 88502          
## 10 PM10 Mass (81102)              81102          
## # ℹ 11 more rows
…
